[
    {
        "model": "Partner.Partner",
        "pk": 1,
        "fields": {
            "name": "Cornish Mutual",
            "max_savings": 10.0,
            "company_admin_id": 2
        }
    },
    {
        "model": "Partner.Partner",
        "pk": 2,
        "fields": {
            "name": "NFU Mutual",
            "max_savings": 10.0,
            "company_admin_id": 3
        }
    },
    {
        "model": "Partner.Partner",
        "pk": 3,
        "fields": {
            "name": "Stable",
            "max_savings": 10.0,
            "logo": "company_logo/Stable/logo.jpg",
            "company_admin_id": 1
        }
    }
]
